{
    "ondot":{
        "enabled":"true",
        "status":0,
        "title":"Temporarily Disengaged",
        "message":"We are working with the Institution to work according to their terms and Conditions. We do not store or use any Data. All data is directly fetched from the Instituiton's Server."
        }
}
